Untitled
…
total_episodes

## [1] 186

# proportion of episodes each character was in
episode_proportion <- mydata %>% 
  unite(season_ep, season, episode, remove = FALSE) %>% 
  group_by(character) %>% 
  summarise(num_episodes = n_distinct(season_ep)) %>% 
  mutate(proportion = round((num_episodes / total_episodes) * 100, 1)) %>% 
  arrange(desc(num_episodes))

episode_proportion

## # A tibble: 773 x 3
##    character num_episodes proportion
##    <chr>            <int>      <dbl>
##  1 Dwight             186      100  
##  2 Jim                185       99.5
##  3 Pam                182       97.8
##  4 Kevin              180       96.8
##  5 Angela             171       91.9
##  6 Phyllis            165       88.7
##  7 Stanley            165       88.7
##  8 Oscar              164       88.2
##  9 Andy               143       76.9
## 10 Kelly              140       75.3
## # ... with 763 more rows
…
